animation{
  name = "stopped",
  src_image = "enemies/subesin.png",
  directions = {
    { x = 0, y = 336, frame_width = 48, frame_height = 48, origin_x = 24, origin_y = 36 },
    { x = 0, y = 288, frame_width = 48, frame_height = 48, origin_x = 24, origin_y = 36 },
    { x = 0, y = 240, frame_width = 48, frame_height = 48, origin_x = 24, origin_y = 36 },
    { x = 0, y = 192, frame_width = 48, frame_height = 48, origin_x = 24, origin_y = 36 },
  },
}
animation{
  name = "attack",
  src_image = "enemies/subesin.png",
  frame_delay = 200,
  frame_to_loop_on = 0,
  directions = {
    { x = 192, y = 144, frame_width = 48, frame_height = 48, origin_x = 24, origin_y = 36 },
    { x = 192, y = 96, frame_width = 48, frame_height = 48, origin_x = 24, origin_y = 36 },
    { x = 192, y = 48, frame_width = 48, frame_height = 48, origin_x = 24, origin_y = 36 },
    { x = 192, y = 0, frame_width = 48, frame_height = 48, origin_x = 24, origin_y = 36 },
  },
}
animation{
  name = "grin",
  src_image = "enemies/subesin.png",
  frame_delay = 100,
  directions = {
    { x = 192, y = 336, frame_width = 48, frame_height = 48, origin_x = 24, origin_y = 36, num_frames = 3 },
    { x = 192, y = 288, frame_width = 48, frame_height = 48, origin_x = 24, origin_y = 36, num_frames = 3 },
    { x = 192, y = 240, frame_width = 48, frame_height = 48, origin_x = 24, origin_y = 36, num_frames = 3 },
    { x = 192, y = 192, frame_width = 48, frame_height = 48, origin_x = 24, origin_y = 36, num_frames = 3 },
  },
}
animation{
  name = "hurt",
  src_image = "enemies/subesin.png",
  frame_delay = 100,
  directions = {
    { x = 0, y = 336, frame_width = 48, frame_height = 48, origin_x = 24, origin_y = 36, num_frames = 3 },
    { x = 0, y = 288, frame_width = 48, frame_height = 48, origin_x = 24, origin_y = 36, num_frames = 3 },
    { x = 0, y = 240, frame_width = 48, frame_height = 48, origin_x = 24, origin_y = 36, num_frames = 3 },
    { x = 0, y = 192, frame_width = 48, frame_height = 48, origin_x = 24, origin_y = 36, num_frames = 3 },
  },
}
animation{
  name = "shimmer",
  src_image = "dungeon.tiles.png",
  directions = {
    { x = 16, y = 16, frame_width = 16, frame_height = 16, origin_x = 8, origin_y = 13 },
    { x = 16, y = 16, frame_width = 16, frame_height = 16, origin_x = 8, origin_y = 13 },
    { x = 16, y = 16, frame_width = 16, frame_height = 16, origin_x = 8, origin_y = 13 },
    { x = 16, y = 16, frame_width = 16, frame_height = 16, origin_x = 8, origin_y = 13 },
  },
}
animation{
  name = "stopped_grin",
  src_image = "enemies/subesin.png",
  directions = {
    { x = 0, y = 144, frame_width = 48, frame_height = 48, origin_x = 24, origin_y = 36 },
    { x = 0, y = 96, frame_width = 48, frame_height = 48, origin_x = 24, origin_y = 36 },
    { x = 0, y = 48, frame_width = 48, frame_height = 48, origin_x = 24, origin_y = 36 },
    { x = 0, y = 0, frame_width = 48, frame_height = 48, origin_x = 24, origin_y = 36 },
  },
}
animation{
  name = "walking",
  src_image = "enemies/subesin.png",
  frame_delay = 175,
  frame_to_loop_on = 0,
  directions = {
    { x = 0, y = 336, frame_width = 48, frame_height = 48, origin_x = 24, origin_y = 36, num_frames = 4 },
    { x = 0, y = 288, frame_width = 48, frame_height = 48, origin_x = 24, origin_y = 36, num_frames = 4 },
    { x = 0, y = 240, frame_width = 48, frame_height = 48, origin_x = 24, origin_y = 36, num_frames = 4 },
    { x = 0, y = 192, frame_width = 48, frame_height = 48, origin_x = 24, origin_y = 36, num_frames = 4 },
  },
}
animation{
  name = "walking_grin",
  src_image = "enemies/subesin.png",
  frame_delay = 175,
  frame_to_loop_on = 0,
  directions = {
    { x = 0, y = 144, frame_width = 48, frame_height = 48, origin_x = 24, origin_y = 36, num_frames = 4 },
    { x = 0, y = 96, frame_width = 48, frame_height = 48, origin_x = 24, origin_y = 36, num_frames = 4 },
    { x = 0, y = 48, frame_width = 48, frame_height = 48, origin_x = 24, origin_y = 36, num_frames = 4 },
    { x = 0, y = 0, frame_width = 48, frame_height = 48, origin_x = 24, origin_y = 36, num_frames = 4 },
  },
}
